183810.999998
79669.9231957
86267.6741024
72260.3536067
75132.4076593
68932.6029131
71197.8334108
67782.5377845
69379.577414
67383.7075589
68477.8018834
67207.1847963
68004.1538837
67138.9553795
67708.2593908
67131.6639346
67524.4769137
67132.1110911
67413.7101219
67138.8498145
67339.825439
67149.7850062
67290.830658
67158.762079
67259.2257454
67166.0293807
67237.7802261
67172.3205073
67223.127439
67177.1443729
67213.3194518
67180.7511381
67206.5975774
67183.5491211
67201.9331033
67185.6323888
67198.7420931
67187.1593955
67196.5257185
67188.2983335
67194.9793762
67189.1321605
67193.9036297
67189.740378
67193.1507383
67190.1847357
67192.621374
67190.5078833
67192.250355
67190.7423803
67191.9887961
67190.912902
67191.804427
67191.036087
67191.6743361
67191.1253299